    21

N       17.064000     12.737000     13.996000
C       16.618000     11.741000     14.852000
N       15.402000     11.817000     15.198000
C       15.031000     12.983000     14.527000
C       13.783000     13.676000     14.459000
N       12.728000     13.258000     15.102000
N       13.695000     14.770000     13.728000
C       14.763000     15.158000     13.041000
N       15.915000     14.588000     12.969000
C       16.014000     13.511000     13.792000
H       17.220000     10.890000     15.133000
H       12.869000     12.447000     15.687000
H       11.822000     13.704000     15.103000
H       14.573000     15.957000     12.340000
O       12.832000     10.986000     16.844000
H       12.161000     10.679000     16.234000
H       12.742000     10.415000     17.607000
O       10.249000     14.030000     16.562000
H        9.439000     14.409000     16.220000
H        9.963000     13.455000     17.272000
H       17.965017     12.795393     13.547868
