   112

C       62.444000     54.981000     45.868000
H       61.419000     55.031000     46.260000
H       62.428000     54.178000     45.126000
C       63.413000     54.608000     46.978000
C       63.993000     55.497000     47.894000
H       63.863000     56.570000     47.794000
C       64.740000     55.049000     48.981000
H       65.195000     55.760000     49.662000
C       64.906000     53.680000     49.200000
O       65.519000     53.277000     50.364000
H       65.474000     52.309000     50.457000
C       64.409000     52.776000     48.263000
H       64.551000     51.709000     48.407000
C       63.672000     53.245000     47.177000
H       63.243000     52.522000     46.493000
C       59.656000     47.783000     52.117000
H       59.284000     48.196000     53.049000
C       60.876000     47.245000     52.006000
H       61.521000     47.248000     52.879000
C       61.413000     46.673000     50.716000
H       61.823000     45.664000     50.875000
H       62.270000     47.260000     50.358000
C       60.313000     46.628000     49.668000
C       60.650000     45.981000     48.387000
O       61.839000     45.857000     48.036000
N       59.653000     45.482000     47.606000
H       59.885000     45.183000     46.667000
H       58.661000     45.555000     47.812000
C       59.110000     47.223000     49.869000
H       58.366000     47.198000     49.080000
N       58.756000     47.844000     51.043000
C       67.455000     48.640000     49.844000
C       68.049000     51.956000     55.176000
C       66.675000     51.961000     54.879000
C       65.656000     52.797000     55.502000
C       64.496000     52.482000     54.809000
C       64.837000     51.505000     53.822000
C       63.761000     51.148000     52.988000
C       63.928000     50.378000     51.828000
C       62.995000     50.150000     50.727000
C       63.694000     49.454000     49.769000
C       65.047000     49.275000     50.287000
C       68.481000     48.110000     48.962000
C       66.091000     48.715000     49.535000
C       68.274000     47.576000     47.577000
C       70.964000     47.778000     49.083000
C       72.112000     47.452000     49.698000
C       72.568000     50.535000     53.484000
C       71.123000     52.500000     55.546000
C       71.111000     52.163000     57.045000
C       65.816000     53.774000     56.627000
C       63.104000     52.825000     54.666000
C       62.522000     51.850000     53.555000
C       69.676000     48.171000     49.650000
C       61.602000     50.710000     50.629000
C       61.601000     52.192000     50.154000
C       63.219000     48.999000     48.419000
C       61.566000     50.913000     54.286000
C       59.388000     50.742000     55.238000
C       60.296000     52.906000     50.493000
C       69.356000     48.765000     50.952000
C       70.284000     49.128000     51.935000
C       70.048000     49.911000     53.075000
C       71.104000     50.626000     53.785000
C       70.478000     51.463000     54.667000
C       69.043000     51.229000     54.509000
N       68.015000     49.050000     51.029000
N       68.815000     50.270000     53.544000
N       66.137000     51.190000     53.859000
N       65.161000     49.813000     51.540000
O       62.422000     53.688000     55.210000
O       61.889000     49.865000     54.807000
O       60.320000     51.428000     54.364000
O       60.328000     53.882000     51.288000
O       59.244000     52.402000     49.967000
H       68.383000     52.633000     55.958000
H       65.801000     48.332000     48.562000
H       67.286000     47.836000     47.185000
H       68.357000     46.487000     47.557000
H       69.023000     47.960000     46.876000
H       70.962000     47.720000     47.995000
H       72.223000     47.397000     50.775000
H       72.981000     47.164000     49.114000
H       72.840000     49.549000     53.102000
H       73.180000     50.715000     54.373000
H       72.868000     51.270000     52.725000
H       70.631000     53.471000     55.394000
H       72.163000     52.633000     55.229000
H       71.628000     51.219000     57.236000
H       70.091000     52.065000     57.427000
H       71.616000     52.948000     57.617000
H       66.438000     54.629000     56.342000
H       66.293000     53.306000     57.494000
H       64.844000     54.168000     56.936000
H       61.951000     52.459000     52.848000
H       61.094000     50.629000     51.595000
H       60.998000     50.117000     49.937000
H       62.433000     52.738000     50.603000
H       61.747000     52.215000     49.070000
H       62.128000     48.979000     48.381000
H       63.550000     47.981000     48.191000
H       63.562000     49.651000     47.605000
H       59.349000     49.677000     55.000000
H       58.418000     51.206000     55.068000
H       59.694000     50.880000     56.278000
H       71.322000     48.933000     51.705000
Mg       66.917000     49.413000     52.917000
O       66.978000     47.214000     52.672000
H       66.433000     46.459000     52.979000
H       67.119000     47.013000     51.738000
H       62.651532     55.904622     45.329693
H       57.861931     48.288325     51.181852
